2017-05-15 11:24:33,245 p=1034 u=verizon |  PLAY [base idrac config] ****************************************************************************************
2017-05-15 11:24:33,506 p=1034 u=verizon |  TASK [disable default password warning] *************************************************************************
2017-05-15 11:24:36,724 p=1034 u=verizon |  fatal: [192.168.1.152]: UNREACHABLE! => {"changed": false, "msg": "Failed to connect to the host via ssh: @@@@@@@@@@@@@@@@@@@@@@@@@@@@@@@@@@@@@@@@@@@@@@@@@@@@@@@@@@@\r\n@    WARNING: REMOTE HOST IDENTIFICATION HAS CHANGED!     @\r\n@@@@@@@@@@@@@@@@@@@@@@@@@@@@@@@@@@@@@@@@@@@@@@@@@@@@@@@@@@@\r\nIT IS POSSIBLE THAT SOMEONE IS DOING SOMETHING NASTY!\r\nSomeone could be eavesdropping on you right now (man-in-the-middle attack)!\r\nIt is also possible that a host key has just been changed.\r\nThe fingerprint for the ECDSA key sent by the remote host is\nd0:15:d4:a9:65:93:32:39:13:76:3b:d8:15:4b:21:7e.\r\nPlease contact your system administrator.\r\nAdd correct host key in /home/verizon/.ssh/known_hosts to get rid of this message.\r\nOffending ECDSA key in /home/verizon/.ssh/known_hosts:1\r\n  remove with: ssh-keygen -f \"/home/verizon/.ssh/known_hosts\" -R 192.168.1.152\r\nPassword authentication is disabled to avoid man-in-the-middle attacks.\r\nKeyboard-interactive authentication is disabled to avoid man-in-the-middle attacks.\r\nPermission denied (publickey,password).\r\n", "unreachable": true}
2017-05-15 11:24:38,704 p=1034 u=verizon |  changed: [192.168.1.147]
2017-05-15 11:24:38,906 p=1034 u=verizon |  changed: [192.168.1.137]
2017-05-15 11:24:39,275 p=1034 u=verizon |  changed: [192.168.1.122]
2017-05-15 11:24:39,283 p=1034 u=verizon |  changed: [192.168.1.111]
2017-05-15 11:24:39,286 p=1034 u=verizon |  changed: [192.168.1.167]
2017-05-15 11:24:39,291 p=1034 u=verizon |  changed: [192.168.1.118]
2017-05-15 11:24:39,297 p=1034 u=verizon |  changed: [192.168.1.175]
2017-05-15 11:24:39,302 p=1034 u=verizon |  changed: [192.168.1.150]
2017-05-15 11:24:39,402 p=1034 u=verizon |  changed: [192.168.1.195]
2017-05-15 11:24:39,627 p=1034 u=verizon |  changed: [192.168.1.135]
2017-05-15 11:24:39,677 p=1034 u=verizon |  changed: [192.168.1.106]
2017-05-15 11:24:39,728 p=1034 u=verizon |  changed: [192.168.1.117]
2017-05-15 11:24:39,758 p=1034 u=verizon |  changed: [192.168.1.159]
2017-05-15 11:24:39,761 p=1034 u=verizon |  changed: [192.168.1.114]
2017-05-15 11:24:39,904 p=1034 u=verizon |  changed: [192.168.1.120]
2017-05-15 11:24:39,942 p=1034 u=verizon |  changed: [192.168.1.193]
2017-05-15 11:24:40,111 p=1034 u=verizon |  changed: [192.168.1.119]
2017-05-15 11:24:40,211 p=1034 u=verizon |  changed: [192.168.1.123]
2017-05-15 11:24:40,448 p=1034 u=verizon |  changed: [192.168.1.115]
2017-05-15 11:24:40,474 p=1034 u=verizon |  changed: [192.168.1.125]
2017-05-15 11:24:40,568 p=1034 u=verizon |  changed: [192.168.1.116]
2017-05-15 11:24:40,589 p=1034 u=verizon |  TASK [get service tag] ******************************************************************************************
2017-05-15 11:24:41,042 p=1034 u=verizon |   [ERROR]: User interrupted execution

2017-05-15 11:25:09,511 p=1261 u=verizon |  PLAY [base idrac config] ****************************************************************************************
2017-05-15 11:25:09,683 p=1261 u=verizon |  TASK [disable default password warning] *************************************************************************
2017-05-15 11:25:11,894 p=1261 u=verizon |  changed: [192.168.1.120]
2017-05-15 11:25:12,073 p=1261 u=verizon |  changed: [192.168.1.137]
2017-05-15 11:25:12,217 p=1261 u=verizon |  changed: [192.168.1.111]
2017-05-15 11:25:12,405 p=1261 u=verizon |  changed: [192.168.1.106]
2017-05-15 11:25:12,422 p=1261 u=verizon |  changed: [192.168.1.175]
2017-05-15 11:25:12,491 p=1261 u=verizon |  changed: [192.168.1.118]
2017-05-15 11:25:12,586 p=1261 u=verizon |  changed: [192.168.1.195]
2017-05-15 11:25:12,605 p=1261 u=verizon |  changed: [192.168.1.147]
2017-05-15 11:25:12,731 p=1261 u=verizon |  changed: [192.168.1.135]
2017-05-15 11:25:12,793 p=1261 u=verizon |  changed: [192.168.1.115]
2017-05-15 11:25:12,813 p=1261 u=verizon |  changed: [192.168.1.150]
2017-05-15 11:25:12,818 p=1261 u=verizon |  changed: [192.168.1.193]
2017-05-15 11:25:12,834 p=1261 u=verizon |  changed: [192.168.1.125]
2017-05-15 11:25:12,843 p=1261 u=verizon |  changed: [192.168.1.159]
2017-05-15 11:25:12,902 p=1261 u=verizon |  changed: [192.168.1.122]
2017-05-15 11:25:12,905 p=1261 u=verizon |  changed: [192.168.1.119]
2017-05-15 11:25:12,981 p=1261 u=verizon |  changed: [192.168.1.116]
2017-05-15 11:25:12,999 p=1261 u=verizon |  changed: [192.168.1.167]
2017-05-15 11:25:13,034 p=1261 u=verizon |  changed: [192.168.1.123]
2017-05-15 11:25:13,364 p=1261 u=verizon |  changed: [192.168.1.114]
2017-05-15 11:25:13,440 p=1261 u=verizon |  changed: [192.168.1.117]
2017-05-15 11:25:15,765 p=1261 u=verizon |  changed: [192.168.1.152]
2017-05-15 11:25:15,786 p=1261 u=verizon |  TASK [get service tag] ******************************************************************************************
2017-05-15 11:25:17,792 p=1261 u=verizon |  changed: [192.168.1.120]
2017-05-15 11:25:17,983 p=1261 u=verizon |  changed: [192.168.1.111]
2017-05-15 11:25:18,203 p=1261 u=verizon |  changed: [192.168.1.147]
2017-05-15 11:25:18,251 p=1261 u=verizon |  changed: [192.168.1.195]
2017-05-15 11:25:18,320 p=1261 u=verizon |  changed: [192.168.1.137]
2017-05-15 11:25:18,535 p=1261 u=verizon |  changed: [192.168.1.135]
2017-05-15 11:25:18,674 p=1261 u=verizon |  changed: [192.168.1.115]
2017-05-15 11:25:18,752 p=1261 u=verizon |  changed: [192.168.1.122]
2017-05-15 11:25:18,791 p=1261 u=verizon |  changed: [192.168.1.119]
2017-05-15 11:25:18,810 p=1261 u=verizon |  changed: [192.168.1.159]
2017-05-15 11:25:18,834 p=1261 u=verizon |  changed: [192.168.1.117]
2017-05-15 11:25:18,837 p=1261 u=verizon |  changed: [192.168.1.150]
2017-05-15 11:25:18,892 p=1261 u=verizon |  changed: [192.168.1.175]
2017-05-15 11:25:18,909 p=1261 u=verizon |  changed: [192.168.1.114]
2017-05-15 11:25:18,971 p=1261 u=verizon |  changed: [192.168.1.167]
2017-05-15 11:25:19,008 p=1261 u=verizon |  changed: [192.168.1.123]
2017-05-15 11:25:19,011 p=1261 u=verizon |  changed: [192.168.1.116]
2017-05-15 11:25:19,105 p=1261 u=verizon |  changed: [192.168.1.193]
2017-05-15 11:25:19,113 p=1261 u=verizon |  changed: [192.168.1.152]
2017-05-15 11:25:19,221 p=1261 u=verizon |  changed: [192.168.1.106]
2017-05-15 11:25:19,333 p=1261 u=verizon |  changed: [192.168.1.125]
2017-05-15 11:25:19,385 p=1261 u=verizon |  changed: [192.168.1.118]
2017-05-15 11:25:19,413 p=1261 u=verizon |  TASK [debug] ****************************************************************************************************
2017-05-15 11:25:19,939 p=1261 u=verizon |  ok: [192.168.1.120] => {
    "changed": false, 
    "result": {
        "changed": true, 
        "rc": 0, 
        "stderr": "Shared connection to 192.168.1.120 closed.\r\n", 
        "stdout": "9N1YJH2\r\n", 
        "stdout_lines": [
            "9N1YJH2"
        ]
    }
}
2017-05-15 11:25:19,944 p=1261 u=verizon |  ok: [192.168.1.111] => {
    "changed": false, 
    "result": {
        "changed": true, 
        "rc": 0, 
        "stderr": "Shared connection to 192.168.1.111 closed.\r\n", 
        "stdout": "9N8VJH2\r\n", 
        "stdout_lines": [
            "9N8VJH2"
        ]
    }
}
2017-05-15 11:25:20,199 p=1261 u=verizon |  ok: [192.168.1.137] => {
    "changed": false, 
    "result": {
        "changed": true, 
        "rc": 0, 
        "stderr": "Shared connection to 192.168.1.137 closed.\r\n", 
        "stdout": "9NBSJH2\r\n", 
        "stdout_lines": [
            "9NBSJH2"
        ]
    }
}
2017-05-15 11:25:20,240 p=1261 u=verizon |  ok: [192.168.1.147] => {
    "changed": false, 
    "result": {
        "changed": true, 
        "rc": 0, 
        "stderr": "Shared connection to 192.168.1.147 closed.\r\n", 
        "stdout": "CG5VHH2\r\n", 
        "stdout_lines": [
            "CG5VHH2"
        ]
    }
}
2017-05-15 11:25:20,315 p=1261 u=verizon |  ok: [192.168.1.175] => {
    "changed": false, 
    "result": {
        "changed": true, 
        "rc": 0, 
        "stderr": "Shared connection to 192.168.1.175 closed.\r\n", 
        "stdout": "CG64JH2\r\n", 
        "stdout_lines": [
            "CG64JH2"
        ]
    }
}
2017-05-15 11:25:20,321 p=1261 u=verizon |  ok: [192.168.1.118] => {
    "changed": false, 
    "result": {
        "changed": true, 
        "rc": 0, 
        "stderr": "Shared connection to 192.168.1.118 closed.\r\n", 
        "stdout": "9NBQJH2\r\n", 
        "stdout_lines": [
            "9NBQJH2"
        ]
    }
}
2017-05-15 11:25:20,367 p=1261 u=verizon |  ok: [192.168.1.135] => {
    "changed": false, 
    "result": {
        "changed": true, 
        "rc": 0, 
        "stderr": "Shared connection to 192.168.1.135 closed.\r\n", 
        "stdout": "9NBPJH2\r\n", 
        "stdout_lines": [
            "9NBPJH2"
        ]
    }
}
2017-05-15 11:25:20,388 p=1261 u=verizon |  ok: [192.168.1.122] => {
    "changed": false, 
    "result": {
        "changed": true, 
        "rc": 0, 
        "stderr": "Shared connection to 192.168.1.122 closed.\r\n", 
        "stdout": "9N8QJH2\r\n", 
        "stdout_lines": [
            "9N8QJH2"
        ]
    }
}
2017-05-15 11:25:20,431 p=1261 u=verizon |  ok: [192.168.1.106] => {
    "changed": false, 
    "result": {
        "changed": true, 
        "rc": 0, 
        "stderr": "Shared connection to 192.168.1.106 closed.\r\n", 
        "stdout": "9NBXJH2\r\n", 
        "stdout_lines": [
            "9NBXJH2"
        ]
    }
}
2017-05-15 11:25:20,439 p=1261 u=verizon |  ok: [192.168.1.193] => {
    "changed": false, 
    "result": {
        "changed": true, 
        "rc": 0, 
        "stderr": "Shared connection to 192.168.1.193 closed.\r\n", 
        "stdout": "9NCNJH2\r\n", 
        "stdout_lines": [
            "9NCNJH2"
        ]
    }
}
2017-05-15 11:25:20,482 p=1261 u=verizon |  ok: [192.168.1.117] => {
    "changed": false, 
    "result": {
        "changed": true, 
        "rc": 0, 
        "stderr": "Shared connection to 192.168.1.117 closed.\r\n", 
        "stdout": "9NBMJH2\r\n", 
        "stdout_lines": [
            "9NBMJH2"
        ]
    }
}
2017-05-15 11:25:20,487 p=1261 u=verizon |  ok: [192.168.1.125] => {
    "changed": false, 
    "result": {
        "changed": true, 
        "rc": 0, 
        "stderr": "Shared connection to 192.168.1.125 closed.\r\n", 
        "stdout": "9N8RJH2\r\n", 
        "stdout_lines": [
            "9N8RJH2"
        ]
    }
}
2017-05-15 11:25:20,503 p=1261 u=verizon |  ok: [192.168.1.195] => {
    "changed": false, 
    "result": {
        "changed": true, 
        "rc": 0, 
        "stderr": "Shared connection to 192.168.1.195 closed.\r\n", 
        "stdout": "9NBTJH2\r\n", 
        "stdout_lines": [
            "9NBTJH2"
        ]
    }
}
2017-05-15 11:25:20,512 p=1261 u=verizon |  ok: [192.168.1.115] => {
    "changed": false, 
    "result": {
        "changed": true, 
        "rc": 0, 
        "stderr": "Shared connection to 192.168.1.115 closed.\r\n", 
        "stdout": "9NCMJH2\r\n", 
        "stdout_lines": [
            "9NCMJH2"
        ]
    }
}
2017-05-15 11:25:20,516 p=1261 u=verizon |  ok: [192.168.1.119] => {
    "changed": false, 
    "result": {
        "changed": true, 
        "rc": 0, 
        "stderr": "Shared connection to 192.168.1.119 closed.\r\n", 
        "stdout": "9N7WJH2\r\n", 
        "stdout_lines": [
            "9N7WJH2"
        ]
    }
}
2017-05-15 11:25:20,583 p=1261 u=verizon |  ok: [192.168.1.150] => {
    "changed": false, 
    "result": {
        "changed": true, 
        "rc": 0, 
        "stderr": "Shared connection to 192.168.1.150 closed.\r\n", 
        "stdout": "9NBWJH2\r\n", 
        "stdout_lines": [
            "9NBWJH2"
        ]
    }
}
2017-05-15 11:25:20,599 p=1261 u=verizon |  ok: [192.168.1.159] => {
    "changed": false, 
    "result": {
        "changed": true, 
        "rc": 0, 
        "stderr": "Shared connection to 192.168.1.159 closed.\r\n", 
        "stdout": "CG6VHH2\r\n", 
        "stdout_lines": [
            "CG6VHH2"
        ]
    }
}
2017-05-15 11:25:20,603 p=1261 u=verizon |  ok: [192.168.1.152] => {
    "changed": false, 
    "result": {
        "changed": true, 
        "rc": 0, 
        "stderr": "Shared connection to 192.168.1.152 closed.\r\n", 
        "stdout": "9N8SJH2\r\n", 
        "stdout_lines": [
            "9N8SJH2"
        ]
    }
}
2017-05-15 11:25:20,648 p=1261 u=verizon |  ok: [192.168.1.167] => {
    "changed": false, 
    "result": {
        "changed": true, 
        "rc": 0, 
        "stderr": "Shared connection to 192.168.1.167 closed.\r\n", 
        "stdout": "9N8PJH2\r\n", 
        "stdout_lines": [
            "9N8PJH2"
        ]
    }
}
2017-05-15 11:25:20,704 p=1261 u=verizon |  ok: [192.168.1.114] => {
    "changed": false, 
    "result": {
        "changed": true, 
        "rc": 0, 
        "stderr": "Shared connection to 192.168.1.114 closed.\r\n", 
        "stdout": "9NCQJH2\r\n", 
        "stdout_lines": [
            "9NCQJH2"
        ]
    }
}
2017-05-15 11:25:20,739 p=1261 u=verizon |  ok: [192.168.1.116] => {
    "changed": false, 
    "result": {
        "changed": true, 
        "rc": 0, 
        "stderr": "Shared connection to 192.168.1.116 closed.\r\n", 
        "stdout": "9MYVJH2\r\n", 
        "stdout_lines": [
            "9MYVJH2"
        ]
    }
}
2017-05-15 11:25:20,760 p=1261 u=verizon |  ok: [192.168.1.123] => {
    "changed": false, 
    "result": {
        "changed": true, 
        "rc": 0, 
        "stderr": "Shared connection to 192.168.1.123 closed.\r\n", 
        "stdout": "CG2THH2\r\n", 
        "stdout_lines": [
            "CG2THH2"
        ]
    }
}
2017-05-15 11:25:20,784 p=1261 u=verizon |  TASK [log service tag] ******************************************************************************************
2017-05-15 11:25:28,603 p=1261 u=verizon |  changed: [192.168.1.122 -> 127.0.0.1]
2017-05-15 11:25:28,673 p=1261 u=verizon |  changed: [192.168.1.137 -> 127.0.0.1]
2017-05-15 11:25:28,709 p=1261 u=verizon |  changed: [192.168.1.167 -> 127.0.0.1]
2017-05-15 11:25:28,749 p=1261 u=verizon |  changed: [192.168.1.152 -> 127.0.0.1]
2017-05-15 11:25:28,833 p=1261 u=verizon |  changed: [192.168.1.115 -> 127.0.0.1]
2017-05-15 11:25:29,135 p=1261 u=verizon |  changed: [192.168.1.116 -> 127.0.0.1]
2017-05-15 11:25:29,155 p=1261 u=verizon |  changed: [192.168.1.135 -> 127.0.0.1]
2017-05-15 11:25:29,160 p=1261 u=verizon |  changed: [192.168.1.114 -> 127.0.0.1]
2017-05-15 11:25:29,164 p=1261 u=verizon |  changed: [192.168.1.118 -> 127.0.0.1]
2017-05-15 11:25:29,174 p=1261 u=verizon |  changed: [192.168.1.193 -> 127.0.0.1]
2017-05-15 11:25:29,212 p=1261 u=verizon |  changed: [192.168.1.175 -> 127.0.0.1]
2017-05-15 11:25:29,284 p=1261 u=verizon |  changed: [192.168.1.117 -> 127.0.0.1]
2017-05-15 11:25:29,287 p=1261 u=verizon |  changed: [192.168.1.150 -> 127.0.0.1]
2017-05-15 11:25:29,302 p=1261 u=verizon |  changed: [192.168.1.147 -> 127.0.0.1]
2017-05-15 11:25:29,305 p=1261 u=verizon |  changed: [192.168.1.123 -> 127.0.0.1]
2017-05-15 11:25:29,319 p=1261 u=verizon |  changed: [192.168.1.195 -> 127.0.0.1]
2017-05-15 11:25:29,326 p=1261 u=verizon |  changed: [192.168.1.111 -> 127.0.0.1]
2017-05-15 11:25:29,351 p=1261 u=verizon |  changed: [192.168.1.106 -> 127.0.0.1]
2017-05-15 11:25:29,391 p=1261 u=verizon |  changed: [192.168.1.120 -> 127.0.0.1]
2017-05-15 11:25:29,400 p=1261 u=verizon |  changed: [192.168.1.125 -> 127.0.0.1]
2017-05-15 11:25:29,404 p=1261 u=verizon |  changed: [192.168.1.159 -> 127.0.0.1]
2017-05-15 11:25:29,431 p=1261 u=verizon |  changed: [192.168.1.119 -> 127.0.0.1]
2017-05-15 11:25:29,452 p=1261 u=verizon |  TASK [enable ipv6] **********************************************************************************************
2017-05-15 11:25:32,054 p=1261 u=verizon |  changed: [192.168.1.119]
2017-05-15 11:25:32,072 p=1261 u=verizon |  changed: [192.168.1.120]
2017-05-15 11:25:32,128 p=1261 u=verizon |  changed: [192.168.1.111]
2017-05-15 11:25:32,195 p=1261 u=verizon |  changed: [192.168.1.118]
2017-05-15 11:25:32,215 p=1261 u=verizon |  changed: [192.168.1.137]
2017-05-15 11:25:32,380 p=1261 u=verizon |  changed: [192.168.1.175]
2017-05-15 11:25:32,426 p=1261 u=verizon |  changed: [192.168.1.106]
2017-05-15 11:25:32,506 p=1261 u=verizon |  changed: [192.168.1.193]
2017-05-15 11:25:32,637 p=1261 u=verizon |  changed: [192.168.1.195]
2017-05-15 11:25:32,664 p=1261 u=verizon |  changed: [192.168.1.152]
2017-05-15 11:25:32,668 p=1261 u=verizon |  changed: [192.168.1.150]
2017-05-15 11:25:32,691 p=1261 u=verizon |  changed: [192.168.1.125]
2017-05-15 11:25:32,734 p=1261 u=verizon |  changed: [192.168.1.123]
2017-05-15 11:25:32,768 p=1261 u=verizon |  changed: [192.168.1.147]
2017-05-15 11:25:32,796 p=1261 u=verizon |  changed: [192.168.1.135]
2017-05-15 11:25:32,829 p=1261 u=verizon |  changed: [192.168.1.122]
2017-05-15 11:25:32,880 p=1261 u=verizon |  changed: [192.168.1.159]
2017-05-15 11:25:32,913 p=1261 u=verizon |  changed: [192.168.1.117]
2017-05-15 11:25:33,181 p=1261 u=verizon |  changed: [192.168.1.116]
2017-05-15 11:25:33,248 p=1261 u=verizon |  changed: [192.168.1.167]
2017-05-15 11:25:33,267 p=1261 u=verizon |  changed: [192.168.1.114]
2017-05-15 11:25:33,273 p=1261 u=verizon |  changed: [192.168.1.115]
2017-05-15 11:25:33,295 p=1261 u=verizon |  TASK [set NIC to LOM3] ******************************************************************************************
2017-05-15 11:25:35,814 p=1261 u=verizon |  changed: [192.168.1.137]
2017-05-15 11:25:35,906 p=1261 u=verizon |  changed: [192.168.1.175]
2017-05-15 11:25:35,936 p=1261 u=verizon |  changed: [192.168.1.122]
2017-05-15 11:25:35,976 p=1261 u=verizon |  changed: [192.168.1.111]
2017-05-15 11:25:36,009 p=1261 u=verizon |  changed: [192.168.1.120]
2017-05-15 11:25:36,151 p=1261 u=verizon |  changed: [192.168.1.147]
2017-05-15 11:25:36,259 p=1261 u=verizon |  changed: [192.168.1.106]
2017-05-15 11:25:36,289 p=1261 u=verizon |  changed: [192.168.1.119]
2017-05-15 11:25:36,485 p=1261 u=verizon |  changed: [192.168.1.125]
2017-05-15 11:25:36,530 p=1261 u=verizon |  changed: [192.168.1.118]
2017-05-15 11:25:36,566 p=1261 u=verizon |  changed: [192.168.1.117]
2017-05-15 11:25:36,655 p=1261 u=verizon |  changed: [192.168.1.193]
2017-05-15 11:25:36,858 p=1261 u=verizon |  changed: [192.168.1.195]
2017-05-15 11:25:36,865 p=1261 u=verizon |  changed: [192.168.1.135]
2017-05-15 11:25:36,893 p=1261 u=verizon |  changed: [192.168.1.114]
2017-05-15 11:25:36,921 p=1261 u=verizon |  changed: [192.168.1.115]
2017-05-15 11:25:37,079 p=1261 u=verizon |  changed: [192.168.1.152]
2017-05-15 11:25:37,114 p=1261 u=verizon |  changed: [192.168.1.116]
2017-05-15 11:25:37,239 p=1261 u=verizon |  changed: [192.168.1.167]
2017-05-15 11:25:37,303 p=1261 u=verizon |  changed: [192.168.1.123]
2017-05-15 11:25:37,481 p=1261 u=verizon |  changed: [192.168.1.150]
2017-05-15 11:25:37,488 p=1261 u=verizon |  changed: [192.168.1.159]
2017-05-15 11:25:37,509 p=1261 u=verizon |  TASK [disable hot spare for PSUs] *******************************************************************************
2017-05-15 11:25:39,976 p=1261 u=verizon |  changed: [192.168.1.111]
2017-05-15 11:25:40,028 p=1261 u=verizon |  changed: [192.168.1.120]
2017-05-15 11:25:40,098 p=1261 u=verizon |  changed: [192.168.1.147]
2017-05-15 11:25:40,106 p=1261 u=verizon |  changed: [192.168.1.195]
2017-05-15 11:25:40,268 p=1261 u=verizon |  changed: [192.168.1.119]
2017-05-15 11:25:40,387 p=1261 u=verizon |  changed: [192.168.1.135]
2017-05-15 11:25:40,431 p=1261 u=verizon |  changed: [192.168.1.106]
2017-05-15 11:25:40,476 p=1261 u=verizon |  changed: [192.168.1.175]
2017-05-15 11:25:40,487 p=1261 u=verizon |  changed: [192.168.1.122]
2017-05-15 11:25:40,589 p=1261 u=verizon |  changed: [192.168.1.137]
2017-05-15 11:25:40,615 p=1261 u=verizon |  changed: [192.168.1.117]
2017-05-15 11:25:40,776 p=1261 u=verizon |  changed: [192.168.1.114]
2017-05-15 11:25:40,804 p=1261 u=verizon |  changed: [192.168.1.125]
2017-05-15 11:25:40,920 p=1261 u=verizon |  changed: [192.168.1.167]
2017-05-15 11:25:40,923 p=1261 u=verizon |  changed: [192.168.1.118]
2017-05-15 11:25:40,994 p=1261 u=verizon |  changed: [192.168.1.193]
2017-05-15 11:25:41,014 p=1261 u=verizon |  changed: [192.168.1.115]
2017-05-15 11:25:41,434 p=1261 u=verizon |  changed: [192.168.1.150]
2017-05-15 11:25:41,508 p=1261 u=verizon |  changed: [192.168.1.152]
2017-05-15 11:25:41,663 p=1261 u=verizon |  changed: [192.168.1.116]
2017-05-15 11:25:41,754 p=1261 u=verizon |  changed: [192.168.1.123]
2017-05-15 11:25:41,902 p=1261 u=verizon |  changed: [192.168.1.159]
2017-05-15 11:25:41,925 p=1261 u=verizon |  TASK [set power policy] *****************************************************************************************
2017-05-15 11:25:44,138 p=1261 u=verizon |  changed: [192.168.1.120]
2017-05-15 11:25:44,268 p=1261 u=verizon |  changed: [192.168.1.111]
2017-05-15 11:25:44,376 p=1261 u=verizon |  changed: [192.168.1.147]
2017-05-15 11:25:44,440 p=1261 u=verizon |  changed: [192.168.1.195]
2017-05-15 11:25:44,502 p=1261 u=verizon |  changed: [192.168.1.122]
2017-05-15 11:25:44,582 p=1261 u=verizon |  changed: [192.168.1.135]
2017-05-15 11:25:44,823 p=1261 u=verizon |  changed: [192.168.1.119]
2017-05-15 11:25:44,838 p=1261 u=verizon |  changed: [192.168.1.137]
2017-05-15 11:25:44,960 p=1261 u=verizon |  changed: [192.168.1.117]
2017-05-15 11:25:45,049 p=1261 u=verizon |  changed: [192.168.1.115]
2017-05-15 11:25:45,068 p=1261 u=verizon |  changed: [192.168.1.150]
2017-05-15 11:25:45,101 p=1261 u=verizon |  changed: [192.168.1.159]
2017-05-15 11:25:45,112 p=1261 u=verizon |  changed: [192.168.1.175]
2017-05-15 11:25:45,220 p=1261 u=verizon |  changed: [192.168.1.167]
2017-05-15 11:25:45,229 p=1261 u=verizon |  changed: [192.168.1.114]
2017-05-15 11:25:45,311 p=1261 u=verizon |  changed: [192.168.1.152]
2017-05-15 11:25:45,341 p=1261 u=verizon |  changed: [192.168.1.106]
2017-05-15 11:25:45,350 p=1261 u=verizon |  changed: [192.168.1.193]
2017-05-15 11:25:45,395 p=1261 u=verizon |  changed: [192.168.1.125]
2017-05-15 11:25:45,409 p=1261 u=verizon |  changed: [192.168.1.118]
2017-05-15 11:25:45,734 p=1261 u=verizon |  changed: [192.168.1.123]
2017-05-15 11:25:46,041 p=1261 u=verizon |  changed: [192.168.1.116]
2017-05-15 11:25:46,063 p=1261 u=verizon |  TASK [get bios version] *****************************************************************************************
2017-05-15 11:25:48,240 p=1261 u=verizon |  changed: [192.168.1.111]
2017-05-15 11:25:48,309 p=1261 u=verizon |  changed: [192.168.1.137]
2017-05-15 11:25:48,458 p=1261 u=verizon |  changed: [192.168.1.120]
2017-05-15 11:25:48,520 p=1261 u=verizon |  changed: [192.168.1.147]
2017-05-15 11:25:48,562 p=1261 u=verizon |  changed: [192.168.1.195]
2017-05-15 11:25:48,598 p=1261 u=verizon |  changed: [192.168.1.135]
2017-05-15 11:25:48,952 p=1261 u=verizon |  changed: [192.168.1.115]
2017-05-15 11:25:49,033 p=1261 u=verizon |  changed: [192.168.1.117]
2017-05-15 11:25:49,098 p=1261 u=verizon |  changed: [192.168.1.159]
2017-05-15 11:25:49,148 p=1261 u=verizon |  changed: [192.168.1.193]
2017-05-15 11:25:49,169 p=1261 u=verizon |  changed: [192.168.1.122]
2017-05-15 11:25:49,174 p=1261 u=verizon |  changed: [192.168.1.150]
2017-05-15 11:25:49,211 p=1261 u=verizon |  changed: [192.168.1.114]
2017-05-15 11:25:49,325 p=1261 u=verizon |  changed: [192.168.1.152]
2017-05-15 11:25:49,331 p=1261 u=verizon |  changed: [192.168.1.116]
2017-05-15 11:25:49,356 p=1261 u=verizon |  changed: [192.168.1.175]
2017-05-15 11:25:49,374 p=1261 u=verizon |  changed: [192.168.1.123]
2017-05-15 11:25:49,389 p=1261 u=verizon |  changed: [192.168.1.167]
2017-05-15 11:25:49,452 p=1261 u=verizon |  changed: [192.168.1.125]
2017-05-15 11:25:49,455 p=1261 u=verizon |  changed: [192.168.1.119]
2017-05-15 11:25:49,593 p=1261 u=verizon |  changed: [192.168.1.106]
2017-05-15 11:25:49,691 p=1261 u=verizon |  changed: [192.168.1.118]
2017-05-15 11:25:49,713 p=1261 u=verizon |  TASK [debug] ****************************************************************************************************
2017-05-15 11:25:50,244 p=1261 u=verizon |  ok: [192.168.1.111] => {
    "changed": false, 
    "result": {
        "changed": true, 
        "rc": 0, 
        "stderr": "Shared connection to 192.168.1.111 closed.\r\n", 
        "stdout": " Bios Version                     = 2.4.3\r\n\r\n", 
        "stdout_lines": [
            " Bios Version                     = 2.4.3", 
            ""
        ]
    }
}
2017-05-15 11:25:50,279 p=1261 u=verizon |  ok: [192.168.1.120] => {
    "changed": false, 
    "result": {
        "changed": true, 
        "rc": 0, 
        "stderr": "Shared connection to 192.168.1.120 closed.\r\n", 
        "stdout": " Bios Version                     = 2.4.3\r\n\r\n", 
        "stdout_lines": [
            " Bios Version                     = 2.4.3", 
            ""
        ]
    }
}
2017-05-15 11:25:50,424 p=1261 u=verizon |  ok: [192.168.1.137] => {
    "changed": false, 
    "result": {
        "changed": true, 
        "rc": 0, 
        "stderr": "Shared connection to 192.168.1.137 closed.\r\n", 
        "stdout": " Bios Version                     = 2.4.3\r\n\r\n", 
        "stdout_lines": [
            " Bios Version                     = 2.4.3", 
            ""
        ]
    }
}
2017-05-15 11:25:50,462 p=1261 u=verizon |  ok: [192.168.1.195] => {
    "changed": false, 
    "result": {
        "changed": true, 
        "rc": 0, 
        "stderr": "Shared connection to 192.168.1.195 closed.\r\n", 
        "stdout": " Bios Version                     = 2.4.3\r\n\r\n", 
        "stdout_lines": [
            " Bios Version                     = 2.4.3", 
            ""
        ]
    }
}
2017-05-15 11:25:50,559 p=1261 u=verizon |  ok: [192.168.1.147] => {
    "changed": false, 
    "result": {
        "changed": true, 
        "rc": 0, 
        "stderr": "Shared connection to 192.168.1.147 closed.\r\n", 
        "stdout": " Bios Version                     = 2.4.3\r\n\r\n", 
        "stdout_lines": [
            " Bios Version                     = 2.4.3", 
            ""
        ]
    }
}
2017-05-15 11:25:50,564 p=1261 u=verizon |  ok: [192.168.1.175] => {
    "changed": false, 
    "result": {
        "changed": true, 
        "rc": 0, 
        "stderr": "Shared connection to 192.168.1.175 closed.\r\n", 
        "stdout": " Bios Version                     = 2.4.3\r\n\r\n", 
        "stdout_lines": [
            " Bios Version                     = 2.4.3", 
            ""
        ]
    }
}
2017-05-15 11:25:50,624 p=1261 u=verizon |  ok: [192.168.1.135] => {
    "changed": false, 
    "result": {
        "changed": true, 
        "rc": 0, 
        "stderr": "Shared connection to 192.168.1.135 closed.\r\n", 
        "stdout": " Bios Version                     = 2.4.3\r\n\r\n", 
        "stdout_lines": [
            " Bios Version                     = 2.4.3", 
            ""
        ]
    }
}
2017-05-15 11:25:50,663 p=1261 u=verizon |  ok: [192.168.1.106] => {
    "changed": false, 
    "result": {
        "changed": true, 
        "rc": 0, 
        "stderr": "Shared connection to 192.168.1.106 closed.\r\n", 
        "stdout": " Bios Version                     = 2.4.3\r\n\r\n", 
        "stdout_lines": [
            " Bios Version                     = 2.4.3", 
            ""
        ]
    }
}
2017-05-15 11:25:50,729 p=1261 u=verizon |  ok: [192.168.1.193] => {
    "changed": false, 
    "result": {
        "changed": true, 
        "rc": 0, 
        "stderr": "Shared connection to 192.168.1.193 closed.\r\n", 
        "stdout": " Bios Version                     = 2.4.3\r\n\r\n", 
        "stdout_lines": [
            " Bios Version                     = 2.4.3", 
            ""
        ]
    }
}
2017-05-15 11:25:50,734 p=1261 u=verizon |  ok: [192.168.1.125] => {
    "changed": false, 
    "result": {
        "changed": true, 
        "rc": 0, 
        "stderr": "Shared connection to 192.168.1.125 closed.\r\n", 
        "stdout": " Bios Version                     = 2.4.3\r\n\r\n", 
        "stdout_lines": [
            " Bios Version                     = 2.4.3", 
            ""
        ]
    }
}
2017-05-15 11:25:50,825 p=1261 u=verizon |  ok: [192.168.1.150] => {
    "changed": false, 
    "result": {
        "changed": true, 
        "rc": 0, 
        "stderr": "Shared connection to 192.168.1.150 closed.\r\n", 
        "stdout": " Bios Version                     = 2.4.3\r\n\r\n", 
        "stdout_lines": [
            " Bios Version                     = 2.4.3", 
            ""
        ]
    }
}
2017-05-15 11:25:50,837 p=1261 u=verizon |  ok: [192.168.1.115] => {
    "changed": false, 
    "result": {
        "changed": true, 
        "rc": 0, 
        "stderr": "Shared connection to 192.168.1.115 closed.\r\n", 
        "stdout": " Bios Version                     = 2.4.3\r\n\r\n", 
        "stdout_lines": [
            " Bios Version                     = 2.4.3", 
            ""
        ]
    }
}
2017-05-15 11:25:50,902 p=1261 u=verizon |  ok: [192.168.1.159] => {
    "changed": false, 
    "result": {
        "changed": true, 
        "rc": 0, 
        "stderr": "Shared connection to 192.168.1.159 closed.\r\n", 
        "stdout": " Bios Version                     = 2.4.3\r\n\r\n", 
        "stdout_lines": [
            " Bios Version                     = 2.4.3", 
            ""
        ]
    }
}
2017-05-15 11:25:50,912 p=1261 u=verizon |  ok: [192.168.1.117] => {
    "changed": false, 
    "result": {
        "changed": true, 
        "rc": 0, 
        "stderr": "Shared connection to 192.168.1.117 closed.\r\n", 
        "stdout": " Bios Version                     = 2.4.3\r\n\r\n", 
        "stdout_lines": [
            " Bios Version                     = 2.4.3", 
            ""
        ]
    }
}
2017-05-15 11:25:50,920 p=1261 u=verizon |  ok: [192.168.1.152] => {
    "changed": false, 
    "result": {
        "changed": true, 
        "rc": 0, 
        "stderr": "Shared connection to 192.168.1.152 closed.\r\n", 
        "stdout": " Bios Version                     = 2.4.3\r\n\r\n", 
        "stdout_lines": [
            " Bios Version                     = 2.4.3", 
            ""
        ]
    }
}
2017-05-15 11:25:50,928 p=1261 u=verizon |  ok: [192.168.1.118] => {
    "changed": false, 
    "result": {
        "changed": true, 
        "rc": 0, 
        "stderr": "Shared connection to 192.168.1.118 closed.\r\n", 
        "stdout": " Bios Version                     = 2.4.3\r\n\r\n", 
        "stdout_lines": [
            " Bios Version                     = 2.4.3", 
            ""
        ]
    }
}
2017-05-15 11:25:50,935 p=1261 u=verizon |  ok: [192.168.1.122] => {
    "changed": false, 
    "result": {
        "changed": true, 
        "rc": 0, 
        "stderr": "Shared connection to 192.168.1.122 closed.\r\n", 
        "stdout": " Bios Version                     = 2.4.3\r\n\r\n", 
        "stdout_lines": [
            " Bios Version                     = 2.4.3", 
            ""
        ]
    }
}
2017-05-15 11:25:50,942 p=1261 u=verizon |  ok: [192.168.1.119] => {
    "changed": false, 
    "result": {
        "changed": true, 
        "rc": 0, 
        "stderr": "Shared connection to 192.168.1.119 closed.\r\n", 
        "stdout": " Bios Version                     = 2.4.3\r\n\r\n", 
        "stdout_lines": [
            " Bios Version                     = 2.4.3", 
            ""
        ]
    }
}
2017-05-15 11:25:50,972 p=1261 u=verizon |  ok: [192.168.1.167] => {
    "changed": false, 
    "result": {
        "changed": true, 
        "rc": 0, 
        "stderr": "Shared connection to 192.168.1.167 closed.\r\n", 
        "stdout": " Bios Version                     = 2.4.3\r\n\r\n", 
        "stdout_lines": [
            " Bios Version                     = 2.4.3", 
            ""
        ]
    }
}
2017-05-15 11:25:50,988 p=1261 u=verizon |  ok: [192.168.1.114] => {
    "changed": false, 
    "result": {
        "changed": true, 
        "rc": 0, 
        "stderr": "Shared connection to 192.168.1.114 closed.\r\n", 
        "stdout": " Bios Version                     = 2.4.3\r\n\r\n", 
        "stdout_lines": [
            " Bios Version                     = 2.4.3", 
            ""
        ]
    }
}
2017-05-15 11:25:51,074 p=1261 u=verizon |  ok: [192.168.1.123] => {
    "changed": false, 
    "result": {
        "changed": true, 
        "rc": 0, 
        "stderr": "Shared connection to 192.168.1.123 closed.\r\n", 
        "stdout": " Bios Version                     = 2.4.3\r\n\r\n", 
        "stdout_lines": [
            " Bios Version                     = 2.4.3", 
            ""
        ]
    }
}
2017-05-15 11:25:51,107 p=1261 u=verizon |  ok: [192.168.1.116] => {
    "changed": false, 
    "result": {
        "changed": true, 
        "rc": 0, 
        "stderr": "Shared connection to 192.168.1.116 closed.\r\n", 
        "stdout": " Bios Version                     = 2.4.3\r\n\r\n", 
        "stdout_lines": [
            " Bios Version                     = 2.4.3", 
            ""
        ]
    }
}
2017-05-15 11:25:51,132 p=1261 u=verizon |  TASK [log bios version] *****************************************************************************************
2017-05-15 11:25:57,190 p=1261 u=verizon |  changed: [192.168.1.120 -> 127.0.0.1]
2017-05-15 11:25:57,847 p=1261 u=verizon |  changed: [192.168.1.111 -> 127.0.0.1]
2017-05-15 11:25:57,860 p=1261 u=verizon |  changed: [192.168.1.195 -> 127.0.0.1]
2017-05-15 11:25:57,979 p=1261 u=verizon |  changed: [192.168.1.137 -> 127.0.0.1]
2017-05-15 11:25:57,999 p=1261 u=verizon |  changed: [192.168.1.119 -> 127.0.0.1]
2017-05-15 11:25:58,059 p=1261 u=verizon |  changed: [192.168.1.106 -> 127.0.0.1]
2017-05-15 11:25:58,103 p=1261 u=verizon |  changed: [192.168.1.175 -> 127.0.0.1]
2017-05-15 11:25:58,131 p=1261 u=verizon |  changed: [192.168.1.147 -> 127.0.0.1]
2017-05-15 11:25:58,143 p=1261 u=verizon |  changed: [192.168.1.122 -> 127.0.0.1]
2017-05-15 11:25:58,202 p=1261 u=verizon |  changed: [192.168.1.135 -> 127.0.0.1]
2017-05-15 11:25:58,422 p=1261 u=verizon |  changed: [192.168.1.118 -> 127.0.0.1]
2017-05-15 11:25:58,626 p=1261 u=verizon |  changed: [192.168.1.117 -> 127.0.0.1]
2017-05-15 11:25:58,649 p=1261 u=verizon |  changed: [192.168.1.125 -> 127.0.0.1]
2017-05-15 11:25:58,660 p=1261 u=verizon |  changed: [192.168.1.193 -> 127.0.0.1]
2017-05-15 11:25:58,706 p=1261 u=verizon |  changed: [192.168.1.150 -> 127.0.0.1]
2017-05-15 11:25:58,740 p=1261 u=verizon |  changed: [192.168.1.115 -> 127.0.0.1]
2017-05-15 11:25:58,785 p=1261 u=verizon |  changed: [192.168.1.123 -> 127.0.0.1]
2017-05-15 11:25:58,893 p=1261 u=verizon |  changed: [192.168.1.159 -> 127.0.0.1]
2017-05-15 11:25:58,907 p=1261 u=verizon |  changed: [192.168.1.152 -> 127.0.0.1]
2017-05-15 11:25:58,959 p=1261 u=verizon |  changed: [192.168.1.116 -> 127.0.0.1]
2017-05-15 11:25:58,978 p=1261 u=verizon |  changed: [192.168.1.167 -> 127.0.0.1]
2017-05-15 11:25:58,982 p=1261 u=verizon |  changed: [192.168.1.114 -> 127.0.0.1]
2017-05-15 11:25:59,004 p=1261 u=verizon |  TASK [get idrac version] ****************************************************************************************
2017-05-15 11:26:01,321 p=1261 u=verizon |  changed: [192.168.1.137]
2017-05-15 11:26:01,342 p=1261 u=verizon |  changed: [192.168.1.119]
2017-05-15 11:26:01,367 p=1261 u=verizon |  changed: [192.168.1.147]
2017-05-15 11:26:01,446 p=1261 u=verizon |  changed: [192.168.1.111]
2017-05-15 11:26:01,488 p=1261 u=verizon |  changed: [192.168.1.122]
2017-05-15 11:26:01,530 p=1261 u=verizon |  changed: [192.168.1.175]
2017-05-15 11:26:01,654 p=1261 u=verizon |  changed: [192.168.1.120]
2017-05-15 11:26:01,659 p=1261 u=verizon |  changed: [192.168.1.106]
2017-05-15 11:26:01,697 p=1261 u=verizon |  changed: [192.168.1.195]
2017-05-15 11:26:01,820 p=1261 u=verizon |  changed: [192.168.1.125]
2017-05-15 11:26:01,957 p=1261 u=verizon |  changed: [192.168.1.117]
2017-05-15 11:26:02,049 p=1261 u=verizon |  changed: [192.168.1.118]
2017-05-15 11:26:02,078 p=1261 u=verizon |  changed: [192.168.1.193]
2017-05-15 11:26:02,290 p=1261 u=verizon |  changed: [192.168.1.135]
2017-05-15 11:26:02,293 p=1261 u=verizon |  changed: [192.168.1.114]
2017-05-15 11:26:02,479 p=1261 u=verizon |  changed: [192.168.1.123]
2017-05-15 11:26:02,502 p=1261 u=verizon |  changed: [192.168.1.167]
2017-05-15 11:26:02,606 p=1261 u=verizon |  changed: [192.168.1.116]
2017-05-15 11:26:02,760 p=1261 u=verizon |  changed: [192.168.1.115]
2017-05-15 11:26:03,341 p=1261 u=verizon |  changed: [192.168.1.152]
2017-05-15 11:26:03,562 p=1261 u=verizon |  changed: [192.168.1.150]
2017-05-15 11:26:03,731 p=1261 u=verizon |  changed: [192.168.1.159]
2017-05-15 11:26:03,753 p=1261 u=verizon |  TASK [create linux_os vdisk] ************************************************************************************
2017-05-15 11:26:17,998 p=1261 u=verizon |  changed: [192.168.1.122]
2017-05-15 11:26:20,392 p=1261 u=verizon |  changed: [192.168.1.111]
2017-05-15 11:26:20,703 p=1261 u=verizon |  changed: [192.168.1.147]
2017-05-15 11:26:20,879 p=1261 u=verizon |  changed: [192.168.1.119]
2017-05-15 11:26:21,019 p=1261 u=verizon |  changed: [192.168.1.175]
2017-05-15 11:26:21,024 p=1261 u=verizon |  changed: [192.168.1.195]
2017-05-15 11:26:21,067 p=1261 u=verizon |  changed: [192.168.1.120]
2017-05-15 11:26:21,149 p=1261 u=verizon |  changed: [192.168.1.150]
2017-05-15 11:26:21,241 p=1261 u=verizon |  changed: [192.168.1.117]
2017-05-15 11:26:21,311 p=1261 u=verizon |  changed: [192.168.1.106]
2017-05-15 11:26:21,336 p=1261 u=verizon |  changed: [192.168.1.125]
2017-05-15 11:26:21,427 p=1261 u=verizon |  changed: [192.168.1.167]
2017-05-15 11:26:21,467 p=1261 u=verizon |  changed: [192.168.1.115]
2017-05-15 11:26:21,507 p=1261 u=verizon |  changed: [192.168.1.137]
2017-05-15 11:26:21,788 p=1261 u=verizon |  changed: [192.168.1.118]
2017-05-15 11:26:22,075 p=1261 u=verizon |  changed: [192.168.1.152]
2017-05-15 11:26:22,157 p=1261 u=verizon |  changed: [192.168.1.114]
2017-05-15 11:26:22,180 p=1261 u=verizon |  changed: [192.168.1.159]
2017-05-15 11:26:22,231 p=1261 u=verizon |  changed: [192.168.1.193]
2017-05-15 11:26:22,401 p=1261 u=verizon |  changed: [192.168.1.123]
2017-05-15 11:26:22,570 p=1261 u=verizon |  changed: [192.168.1.116]
2017-05-15 11:26:22,691 p=1261 u=verizon |  changed: [192.168.1.135]
2017-05-15 11:26:22,712 p=1261 u=verizon |  TASK [create images vdisk] **************************************************************************************
2017-05-15 11:26:26,184 p=1261 u=verizon |  changed: [192.168.1.111]
2017-05-15 11:26:26,321 p=1261 u=verizon |  changed: [192.168.1.135]
2017-05-15 11:26:26,360 p=1261 u=verizon |  changed: [192.168.1.122]
2017-05-15 11:26:26,403 p=1261 u=verizon |  changed: [192.168.1.175]
2017-05-15 11:26:26,545 p=1261 u=verizon |  changed: [192.168.1.120]
2017-05-15 11:26:26,602 p=1261 u=verizon |  changed: [192.168.1.147]
2017-05-15 11:26:26,663 p=1261 u=verizon |  changed: [192.168.1.150]
2017-05-15 11:26:26,841 p=1261 u=verizon |  changed: [192.168.1.167]
2017-05-15 11:26:26,922 p=1261 u=verizon |  changed: [192.168.1.119]
2017-05-15 11:26:27,008 p=1261 u=verizon |  changed: [192.168.1.137]
2017-05-15 11:26:27,238 p=1261 u=verizon |  changed: [192.168.1.106]
2017-05-15 11:26:27,245 p=1261 u=verizon |  changed: [192.168.1.118]
2017-05-15 11:26:27,279 p=1261 u=verizon |  changed: [192.168.1.125]
2017-05-15 11:26:27,338 p=1261 u=verizon |  changed: [192.168.1.195]
2017-05-15 11:26:27,388 p=1261 u=verizon |  changed: [192.168.1.117]
2017-05-15 11:26:27,402 p=1261 u=verizon |  changed: [192.168.1.116]
2017-05-15 11:26:27,438 p=1261 u=verizon |  changed: [192.168.1.114]
2017-05-15 11:26:27,591 p=1261 u=verizon |  changed: [192.168.1.115]
2017-05-15 11:26:27,597 p=1261 u=verizon |  changed: [192.168.1.152]
2017-05-15 11:26:27,637 p=1261 u=verizon |  changed: [192.168.1.123]
2017-05-15 11:26:27,946 p=1261 u=verizon |  changed: [192.168.1.159]
2017-05-15 11:26:28,391 p=1261 u=verizon |  changed: [192.168.1.193]
2017-05-15 11:26:28,412 p=1261 u=verizon |  TASK [apply new disks] ******************************************************************************************
2017-05-15 11:26:33,921 p=1261 u=verizon |  changed: [192.168.1.111]
2017-05-15 11:26:34,276 p=1261 u=verizon |  changed: [192.168.1.147]
2017-05-15 11:26:34,472 p=1261 u=verizon |  changed: [192.168.1.195]
2017-05-15 11:26:34,503 p=1261 u=verizon |  changed: [192.168.1.122]
2017-05-15 11:26:34,587 p=1261 u=verizon |  changed: [192.168.1.135]
2017-05-15 11:26:34,629 p=1261 u=verizon |  changed: [192.168.1.119]
2017-05-15 11:26:34,782 p=1261 u=verizon |  changed: [192.168.1.175]
2017-05-15 11:26:34,838 p=1261 u=verizon |  changed: [192.168.1.117]
2017-05-15 11:26:34,876 p=1261 u=verizon |  changed: [192.168.1.106]
2017-05-15 11:26:34,912 p=1261 u=verizon |  changed: [192.168.1.115]
2017-05-15 11:26:34,978 p=1261 u=verizon |  changed: [192.168.1.159]
2017-05-15 11:26:35,087 p=1261 u=verizon |  changed: [192.168.1.125]
2017-05-15 11:26:35,100 p=1261 u=verizon |  changed: [192.168.1.118]
2017-05-15 11:26:35,191 p=1261 u=verizon |  changed: [192.168.1.114]
2017-05-15 11:26:35,195 p=1261 u=verizon |  changed: [192.168.1.150]
2017-05-15 11:26:35,220 p=1261 u=verizon |  changed: [192.168.1.167]
2017-05-15 11:26:35,269 p=1261 u=verizon |  changed: [192.168.1.193]
2017-05-15 11:26:35,571 p=1261 u=verizon |  changed: [192.168.1.137]
2017-05-15 11:26:35,643 p=1261 u=verizon |  changed: [192.168.1.120]
2017-05-15 11:26:35,890 p=1261 u=verizon |  changed: [192.168.1.123]
2017-05-15 11:26:36,277 p=1261 u=verizon |  changed: [192.168.1.116]
2017-05-15 11:26:36,701 p=1261 u=verizon |  changed: [192.168.1.152]
2017-05-15 11:26:36,723 p=1261 u=verizon |  TASK [debug] ****************************************************************************************************
2017-05-15 11:26:37,178 p=1261 u=verizon |  ok: [192.168.1.120] => {
    "changed": false, 
    "result": {
        "changed": true, 
        "rc": 0, 
        "stderr": "Shared connection to 192.168.1.120 closed.\r\n", 
        "stdout": "RAC1024: Successfully scheduled a job.\r\nVerify the job status using \"racadm jobqueue view -i JID_xxxxx\" command.\r\nCommit JID = JID_948619217261\r\n", 
        "stdout_lines": [
            "RAC1024: Successfully scheduled a job.", 
            "Verify the job status using \"racadm jobqueue view -i JID_xxxxx\" command.", 
            "Commit JID = JID_948619217261"
        ]
    }
}
2017-05-15 11:26:37,230 p=1261 u=verizon |  ok: [192.168.1.111] => {
    "changed": false, 
    "result": {
        "changed": true, 
        "rc": 0, 
        "stderr": "Shared connection to 192.168.1.111 closed.\r\n", 
        "stdout": "RAC1024: Successfully scheduled a job.\r\nVerify the job status using \"racadm jobqueue view -i JID_xxxxx\" command.\r\nCommit JID = JID_948618767032\r\n", 
        "stdout_lines": [
            "RAC1024: Successfully scheduled a job.", 
            "Verify the job status using \"racadm jobqueue view -i JID_xxxxx\" command.", 
            "Commit JID = JID_948618767032"
        ]
    }
}
2017-05-15 11:26:37,475 p=1261 u=verizon |  ok: [192.168.1.137] => {
    "changed": false, 
    "result": {
        "changed": true, 
        "rc": 0, 
        "stderr": "Shared connection to 192.168.1.137 closed.\r\n", 
        "stdout": "RAC1024: Successfully scheduled a job.\r\nVerify the job status using \"racadm jobqueue view -i JID_xxxxx\" command.\r\nCommit JID = JID_948618769893\r\n", 
        "stdout_lines": [
            "RAC1024: Successfully scheduled a job.", 
            "Verify the job status using \"racadm jobqueue view -i JID_xxxxx\" command.", 
            "Commit JID = JID_948618769893"
        ]
    }
}
2017-05-15 11:26:37,518 p=1261 u=verizon |  ok: [192.168.1.147] => {
    "changed": false, 
    "result": {
        "changed": true, 
        "rc": 0, 
        "stderr": "Shared connection to 192.168.1.147 closed.\r\n", 
        "stdout": "RAC1024: Successfully scheduled a job.\r\nVerify the job status using \"racadm jobqueue view -i JID_xxxxx\" command.\r\nCommit JID = JID_948618752883\r\n", 
        "stdout_lines": [
            "RAC1024: Successfully scheduled a job.", 
            "Verify the job status using \"racadm jobqueue view -i JID_xxxxx\" command.", 
            "Commit JID = JID_948618752883"
        ]
    }
}
2017-05-15 11:26:37,597 p=1261 u=verizon |  ok: [192.168.1.122] => {
    "changed": false, 
    "result": {
        "changed": true, 
        "rc": 0, 
        "stderr": "Shared connection to 192.168.1.122 closed.\r\n", 
        "stdout": "RAC1024: Successfully scheduled a job.\r\nVerify the job status using \"racadm jobqueue view -i JID_xxxxx\" command.\r\nCommit JID = JID_948618897390\r\n", 
        "stdout_lines": [
            "RAC1024: Successfully scheduled a job.", 
            "Verify the job status using \"racadm jobqueue view -i JID_xxxxx\" command.", 
            "Commit JID = JID_948618897390"
        ]
    }
}
2017-05-15 11:26:37,618 p=1261 u=verizon |  ok: [192.168.1.106] => {
    "changed": false, 
    "result": {
        "changed": true, 
        "rc": 0, 
        "stderr": "Shared connection to 192.168.1.106 closed.\r\n", 
        "stdout": "RAC1024: Successfully scheduled a job.\r\nVerify the job status using \"racadm jobqueue view -i JID_xxxxx\" command.\r\nCommit JID = JID_948618897961\r\n", 
        "stdout_lines": [
            "RAC1024: Successfully scheduled a job.", 
            "Verify the job status using \"racadm jobqueue view -i JID_xxxxx\" command.", 
            "Commit JID = JID_948618897961"
        ]
    }
}
2017-05-15 11:26:37,690 p=1261 u=verizon |  ok: [192.168.1.135] => {
    "changed": false, 
    "result": {
        "changed": true, 
        "rc": 0, 
        "stderr": "Shared connection to 192.168.1.135 closed.\r\n", 
        "stdout": "RAC1024: Successfully scheduled a job.\r\nVerify the job status using \"racadm jobqueue view -i JID_xxxxx\" command.\r\nCommit JID = JID_948618875938\r\n", 
        "stdout_lines": [
            "RAC1024: Successfully scheduled a job.", 
            "Verify the job status using \"racadm jobqueue view -i JID_xxxxx\" command.", 
            "Commit JID = JID_948618875938"
        ]
    }
}
2017-05-15 11:26:37,720 p=1261 u=verizon |  ok: [192.168.1.195] => {
    "changed": false, 
    "result": {
        "changed": true, 
        "rc": 0, 
        "stderr": "Shared connection to 192.168.1.195 closed.\r\n", 
        "stdout": "RAC1024: Successfully scheduled a job.\r\nVerify the job status using \"racadm jobqueue view -i JID_xxxxx\" command.\r\nCommit JID = JID_948619269995\r\n", 
        "stdout_lines": [
            "RAC1024: Successfully scheduled a job.", 
            "Verify the job status using \"racadm jobqueue view -i JID_xxxxx\" command.", 
            "Commit JID = JID_948619269995"
        ]
    }
}
2017-05-15 11:26:37,750 p=1261 u=verizon |  ok: [192.168.1.125] => {
    "changed": false, 
    "result": {
        "changed": true, 
        "rc": 0, 
        "stderr": "Shared connection to 192.168.1.125 closed.\r\n", 
        "stdout": "RAC1024: Successfully scheduled a job.\r\nVerify the job status using \"racadm jobqueue view -i JID_xxxxx\" command.\r\nCommit JID = JID_948618995810\r\n", 
        "stdout_lines": [
            "RAC1024: Successfully scheduled a job.", 
            "Verify the job status using \"racadm jobqueue view -i JID_xxxxx\" command.", 
            "Commit JID = JID_948618995810"
        ]
    }
}
2017-05-15 11:26:37,760 p=1261 u=verizon |  ok: [192.168.1.118] => {
    "changed": false, 
    "result": {
        "changed": true, 
        "rc": 0, 
        "stderr": "Shared connection to 192.168.1.118 closed.\r\n", 
        "stdout": "RAC1024: Successfully scheduled a job.\r\nVerify the job status using \"racadm jobqueue view -i JID_xxxxx\" command.\r\nCommit JID = JID_948618795593\r\n", 
        "stdout_lines": [
            "RAC1024: Successfully scheduled a job.", 
            "Verify the job status using \"racadm jobqueue view -i JID_xxxxx\" command.", 
            "Commit JID = JID_948618795593"
        ]
    }
}
2017-05-15 11:26:37,830 p=1261 u=verizon |  ok: [192.168.1.193] => {
    "changed": false, 
    "result": {
        "changed": true, 
        "rc": 0, 
        "stderr": "Shared connection to 192.168.1.193 closed.\r\n", 
        "stdout": "RAC1024: Successfully scheduled a job.\r\nVerify the job status using \"racadm jobqueue view -i JID_xxxxx\" command.\r\nCommit JID = JID_948618910013\r\n", 
        "stdout_lines": [
            "RAC1024: Successfully scheduled a job.", 
            "Verify the job status using \"racadm jobqueue view -i JID_xxxxx\" command.", 
            "Commit JID = JID_948618910013"
        ]
    }
}
2017-05-15 11:26:37,837 p=1261 u=verizon |  ok: [192.168.1.117] => {
    "changed": false, 
    "result": {
        "changed": true, 
        "rc": 0, 
        "stderr": "Shared connection to 192.168.1.117 closed.\r\n", 
        "stdout": "RAC1024: Successfully scheduled a job.\r\nVerify the job status using \"racadm jobqueue view -i JID_xxxxx\" command.\r\nCommit JID = JID_948619230339\r\n", 
        "stdout_lines": [
            "RAC1024: Successfully scheduled a job.", 
            "Verify the job status using \"racadm jobqueue view -i JID_xxxxx\" command.", 
            "Commit JID = JID_948619230339"
        ]
    }
}
2017-05-15 11:26:37,922 p=1261 u=verizon |  ok: [192.168.1.150] => {
    "changed": false, 
    "result": {
        "changed": true, 
        "rc": 0, 
        "stderr": "Shared connection to 192.168.1.150 closed.\r\n", 
        "stdout": "RAC1024: Successfully scheduled a job.\r\nVerify the job status using \"racadm jobqueue view -i JID_xxxxx\" command.\r\nCommit JID = JID_948618967183\r\n", 
        "stdout_lines": [
            "RAC1024: Successfully scheduled a job.", 
            "Verify the job status using \"racadm jobqueue view -i JID_xxxxx\" command.", 
            "Commit JID = JID_948618967183"
        ]
    }
}
2017-05-15 11:26:37,959 p=1261 u=verizon |  ok: [192.168.1.159] => {
    "changed": false, 
    "result": {
        "changed": true, 
        "rc": 0, 
        "stderr": "Shared connection to 192.168.1.159 closed.\r\n", 
        "stdout": "RAC1024: Successfully scheduled a job.\r\nVerify the job status using \"racadm jobqueue view -i JID_xxxxx\" command.\r\nCommit JID = JID_948618955733\r\n", 
        "stdout_lines": [
            "RAC1024: Successfully scheduled a job.", 
            "Verify the job status using \"racadm jobqueue view -i JID_xxxxx\" command.", 
            "Commit JID = JID_948618955733"
        ]
    }
}
2017-05-15 11:26:37,967 p=1261 u=verizon |  ok: [192.168.1.115] => {
    "changed": false, 
    "result": {
        "changed": true, 
        "rc": 0, 
        "stderr": "Shared connection to 192.168.1.115 closed.\r\n", 
        "stdout": "RAC1024: Successfully scheduled a job.\r\nVerify the job status using \"racadm jobqueue view -i JID_xxxxx\" command.\r\nCommit JID = JID_948618961266\r\n", 
        "stdout_lines": [
            "RAC1024: Successfully scheduled a job.", 
            "Verify the job status using \"racadm jobqueue view -i JID_xxxxx\" command.", 
            "Commit JID = JID_948618961266"
        ]
    }
}
2017-05-15 11:26:37,977 p=1261 u=verizon |  ok: [192.168.1.152] => {
    "changed": false, 
    "result": {
        "changed": true, 
        "rc": 0, 
        "stderr": "Shared connection to 192.168.1.152 closed.\r\n", 
        "stdout": "RAC1024: Successfully scheduled a job.\r\nVerify the job status using \"racadm jobqueue view -i JID_xxxxx\" command.\r\nCommit JID = JID_948618820885\r\n", 
        "stdout_lines": [
            "RAC1024: Successfully scheduled a job.", 
            "Verify the job status using \"racadm jobqueue view -i JID_xxxxx\" command.", 
            "Commit JID = JID_948618820885"
        ]
    }
}
2017-05-15 11:26:37,999 p=1261 u=verizon |  ok: [192.168.1.175] => {
    "changed": false, 
    "result": {
        "changed": true, 
        "rc": 0, 
        "stderr": "Shared connection to 192.168.1.175 closed.\r\n", 
        "stdout": "RAC1024: Successfully scheduled a job.\r\nVerify the job status using \"racadm jobqueue view -i JID_xxxxx\" command.\r\nCommit JID = JID_948618842384\r\n", 
        "stdout_lines": [
            "RAC1024: Successfully scheduled a job.", 
            "Verify the job status using \"racadm jobqueue view -i JID_xxxxx\" command.", 
            "Commit JID = JID_948618842384"
        ]
    }
}
2017-05-15 11:26:38,005 p=1261 u=verizon |  ok: [192.168.1.119] => {
    "changed": false, 
    "result": {
        "changed": true, 
        "rc": 0, 
        "stderr": "Shared connection to 192.168.1.119 closed.\r\n", 
        "stdout": "RAC1024: Successfully scheduled a job.\r\nVerify the job status using \"racadm jobqueue view -i JID_xxxxx\" command.\r\nCommit JID = JID_948619206581\r\n", 
        "stdout_lines": [
            "RAC1024: Successfully scheduled a job.", 
            "Verify the job status using \"racadm jobqueue view -i JID_xxxxx\" command.", 
            "Commit JID = JID_948619206581"
        ]
    }
}
2017-05-15 11:26:38,030 p=1261 u=verizon |  ok: [192.168.1.114] => {
    "changed": false, 
    "result": {
        "changed": true, 
        "rc": 0, 
        "stderr": "Shared connection to 192.168.1.114 closed.\r\n", 
        "stdout": "RAC1024: Successfully scheduled a job.\r\nVerify the job status using \"racadm jobqueue view -i JID_xxxxx\" command.\r\nCommit JID = JID_948618835037\r\n", 
        "stdout_lines": [
            "RAC1024: Successfully scheduled a job.", 
            "Verify the job status using \"racadm jobqueue view -i JID_xxxxx\" command.", 
            "Commit JID = JID_948618835037"
        ]
    }
}
2017-05-15 11:26:38,039 p=1261 u=verizon |  ok: [192.168.1.123] => {
    "changed": false, 
    "result": {
        "changed": true, 
        "rc": 0, 
        "stderr": "Shared connection to 192.168.1.123 closed.\r\n", 
        "stdout": "RAC1024: Successfully scheduled a job.\r\nVerify the job status using \"racadm jobqueue view -i JID_xxxxx\" command.\r\nCommit JID = JID_948619317049\r\n", 
        "stdout_lines": [
            "RAC1024: Successfully scheduled a job.", 
            "Verify the job status using \"racadm jobqueue view -i JID_xxxxx\" command.", 
            "Commit JID = JID_948619317049"
        ]
    }
}
2017-05-15 11:26:38,102 p=1261 u=verizon |  ok: [192.168.1.167] => {
    "changed": false, 
    "result": {
        "changed": true, 
        "rc": 0, 
        "stderr": "Shared connection to 192.168.1.167 closed.\r\n", 
        "stdout": "RAC1024: Successfully scheduled a job.\r\nVerify the job status using \"racadm jobqueue view -i JID_xxxxx\" command.\r\nCommit JID = JID_948618826747\r\n", 
        "stdout_lines": [
            "RAC1024: Successfully scheduled a job.", 
            "Verify the job status using \"racadm jobqueue view -i JID_xxxxx\" command.", 
            "Commit JID = JID_948618826747"
        ]
    }
}
2017-05-15 11:26:38,155 p=1261 u=verizon |  ok: [192.168.1.116] => {
    "changed": false, 
    "result": {
        "changed": true, 
        "rc": 0, 
        "stderr": "Shared connection to 192.168.1.116 closed.\r\n", 
        "stdout": "RAC1024: Successfully scheduled a job.\r\nVerify the job status using \"racadm jobqueue view -i JID_xxxxx\" command.\r\nCommit JID = JID_948619089683\r\n", 
        "stdout_lines": [
            "RAC1024: Successfully scheduled a job.", 
            "Verify the job status using \"racadm jobqueue view -i JID_xxxxx\" command.", 
            "Commit JID = JID_948619089683"
        ]
    }
}
2017-05-15 11:26:38,205 p=1261 u=verizon |  PLAY RECAP ******************************************************************************************************
2017-05-15 11:26:38,207 p=1261 u=verizon |  192.168.1.106              : ok=16   changed=13   unreachable=0    failed=0   
2017-05-15 11:26:38,208 p=1261 u=verizon |  192.168.1.111              : ok=16   changed=13   unreachable=0    failed=0   
2017-05-15 11:26:38,209 p=1261 u=verizon |  192.168.1.114              : ok=16   changed=13   unreachable=0    failed=0   
2017-05-15 11:26:38,211 p=1261 u=verizon |  192.168.1.115              : ok=16   changed=13   unreachable=0    failed=0   
2017-05-15 11:26:38,213 p=1261 u=verizon |  192.168.1.116              : ok=16   changed=13   unreachable=0    failed=0   
2017-05-15 11:26:38,215 p=1261 u=verizon |  192.168.1.117              : ok=16   changed=13   unreachable=0    failed=0   
2017-05-15 11:26:38,216 p=1261 u=verizon |  192.168.1.118              : ok=16   changed=13   unreachable=0    failed=0   
2017-05-15 11:26:38,217 p=1261 u=verizon |  192.168.1.119              : ok=16   changed=13   unreachable=0    failed=0   
2017-05-15 11:26:38,220 p=1261 u=verizon |  192.168.1.120              : ok=16   changed=13   unreachable=0    failed=0   
2017-05-15 11:26:38,221 p=1261 u=verizon |  192.168.1.122              : ok=16   changed=13   unreachable=0    failed=0   
2017-05-15 11:26:38,223 p=1261 u=verizon |  192.168.1.123              : ok=16   changed=13   unreachable=0    failed=0   
2017-05-15 11:26:38,224 p=1261 u=verizon |  192.168.1.125              : ok=16   changed=13   unreachable=0    failed=0   
2017-05-15 11:26:38,226 p=1261 u=verizon |  192.168.1.135              : ok=16   changed=13   unreachable=0    failed=0   
2017-05-15 11:26:38,227 p=1261 u=verizon |  192.168.1.137              : ok=16   changed=13   unreachable=0    failed=0   
2017-05-15 11:26:38,229 p=1261 u=verizon |  192.168.1.147              : ok=16   changed=13   unreachable=0    failed=0   
2017-05-15 11:26:38,231 p=1261 u=verizon |  192.168.1.150              : ok=16   changed=13   unreachable=0    failed=0   
2017-05-15 11:26:38,232 p=1261 u=verizon |  192.168.1.152              : ok=16   changed=13   unreachable=0    failed=0   
2017-05-15 11:26:38,233 p=1261 u=verizon |  192.168.1.159              : ok=16   changed=13   unreachable=0    failed=0   
2017-05-15 11:26:38,235 p=1261 u=verizon |  192.168.1.167              : ok=16   changed=13   unreachable=0    failed=0   
2017-05-15 11:26:38,236 p=1261 u=verizon |  192.168.1.175              : ok=16   changed=13   unreachable=0    failed=0   
2017-05-15 11:26:38,238 p=1261 u=verizon |  192.168.1.193              : ok=16   changed=13   unreachable=0    failed=0   
2017-05-15 11:26:38,240 p=1261 u=verizon |  192.168.1.195              : ok=16   changed=13   unreachable=0    failed=0   
